Nonlinear Mixed Effects Models in Population PK/PD, Plot Functions • nlmixr2plot
…
#> 
#>        Parameter  Est.     SE %RSE Back-transformed(95%CI) BSV(CV%) Shrink(SD)%
#> tka       Log Ka 0.464  0.195   42       1.59 (1.09, 2.33)     71.1   -0.0900% 
#> tcl       Log Cl  1.01  0.085 8.43       2.74 (2.32, 3.24)     27.4      4.80% 
#> tv         Log V  3.46 0.0447 1.29         31.7 (29, 34.6)     13.1      8.77% 
#> add.sd           0.696                               0.696                     
#>  
#>   Covariance Type ($covMethod): linFim
#>   No correlations in between subject variability (BSV) matrix
#>   Full BSV covariance ($omega) or correlation ($omegaR; diagonals=SDs) 
#>   Distribution stats (mean/skewness/kurtosis/p-value) available in $shrink 
#>   Censoring ($censInformation): No censoring
#> 
#> ── Fit Data (object is a modified tibble): ──
#> # A tibble: 132 × 19
#>   ID     TIME    DV  PRED    RES IPRED   IRES  IWRES eta.ka eta.cl   eta.v    cp
#>   <fct> <dbl> <dbl> <dbl>  <dbl> <dbl>  <dbl>  <dbl>  <dbl>  <dbl>   <dbl> <dbl>
#> 1 1      0     0.74  0     0.74   0     0.74   1.06  0.0839 -0.477 -0.0849  0   
#> 2 1      0.25  2.84  3.28 -0.437  3.83 -0.991 -1.42  0.0839 -0.477 -0.0849  3.83
#> 3 1      0.57  6.57  5.86  0.715  6.76 -0.194 -0.278 0.0839 -0.477 -0.0849  6.76
#> # ℹ 129 more rows
#> # ℹ 7 more variables: depot <dbl>, center <dbl>, ka <dbl>, cl <dbl>, v <dbl>,
#> #   tad <dbl>, dosenum <dbl>
…
